%!PS-Adobe-2.0
%%Title: barCanvas_2.ps ( A 4)
%%Pages: (atend)
%%Creator: ROOT Version 6.06/02
%%CreationDate: Thu Aug 11 19:58:04 2016
%%Orientation: Landscape
%%DocumentNeededResources: ProcSet (FontSetInit)
%%EndComments
%%BeginProlog
/s {stroke} def /l {lineto} def /m {moveto} def /t {translate} def
/r {rotate} def /rl {roll}  def /R {repeat} def
/d {rlineto} def /rm {rmoveto} def /gr {grestore} def /f {eofill} def
/c {setrgbcolor} def /black {0 setgray} def /sd {setdash} def
/cl {closepath} def /sf {scalefont setfont} def /lw {setlinewidth} def
/box {m dup 0 exch d exch 0 d 0 exch neg d cl} def
/NC{systemdict begin initclip end}def/C{NC box clip newpath}def
/bl {box s} def /bf {gsave box gsave f grestore 1 lw [] 0 sd s grestore} def /Y { 0 exch d} def /X { 0 d} def 
/K {{pop pop 0 moveto} exch kshow} bind def
/ita {/ang 15 def gsave [1 0 ang dup sin exch cos div 1 0 0] concat} def 
/mp {newpath /y exch def /x exch def} def
/side {[w .77 mul w .23 mul] .385 w mul sd w 0 l currentpoint t -144 r} def
/mr {mp x y w2 0 360 arc} def /m24 {mr s} def /m20 {mr f} def
/mb {mp x y w2 add m w2 neg 0 d 0 w neg d w 0 d 0 w d cl} def
/mt {mp x y w2 add m w2 neg w neg d w 0 d cl} def
/m21 {mb f} def /m25 {mb s} def /m22 {mt f} def /m26{mt s} def
/m23 {mp x y w2 sub m w2 w d w neg 0 d cl f} def
/m27 {mp x y w2 add m w3 neg w2 neg d w3 w2 neg d w3 w2 d cl s} def
/m28 {mp x w2 sub y w2 sub w3 add m w3 0 d  0 w3 neg d w3 0 d 0 w3 d w3 0 d  0 w3 d w3 neg 0 d 0 w3 d w3 neg 0 d 0 w3 neg d w3 neg 0 d cl s } def
/m29 {mp gsave x w2 sub y w2 add w3 sub m currentpoint t 4 {side} repeat cl fill gr} def
/m30 {mp gsave x w2 sub y w2 add w3 sub m currentpoint t 4 {side} repeat cl s gr} def
/m31 {mp x y w2 sub m 0 w d x w2 sub y m w 0 d x w2 sub y w2 add m w w neg d x w2 sub y w2 sub m w w d s} def
/m32 {mp x y w2 sub m w2 w d w neg 0 d cl s} def
/m33 {mp x y w2 add m w3 neg w2 neg d w3 w2 neg d w3 w2 d cl f} def
/m34 {mp x w2 sub y w2 sub w3 add m w3 0 d  0 w3 neg d w3 0 d 0 w3 d w3 0 d  0 w3 d w3 neg 0 d 0 w3 d w3 neg 0 d 0 w3 neg d w3 neg 0 d cl f } def
/m2 {mp x y w2 sub m 0 w d x w2 sub y m w 0 d s} def
/m5 {mp x w2 sub y w2 sub m w w d x w2 sub y w2 add m w w neg d s} def
%%IncludeResource: ProcSet (FontSetInit)
%%IncludeResource: font Times-Roman
%%IncludeResource: font Times-Italic
%%IncludeResource: font Times-Bold
%%IncludeResource: font Times-BoldItalic
%%IncludeResource: font Helvetica
%%IncludeResource: font Helvetica-Oblique
%%IncludeResource: font Helvetica-Bold
%%IncludeResource: font Helvetica-BoldOblique
%%IncludeResource: font Courier
%%IncludeResource: font Courier-Oblique
%%IncludeResource: font Courier-Bold
%%IncludeResource: font Courier-BoldOblique
%%IncludeResource: font Symbol
%%IncludeResource: font ZapfDingbats
/reEncode {exch findfont dup length dict begin {1 index /FID eq  {pop pop} {def} ifelse } forall /Encoding exch def currentdict end dup /FontName get exch definefont pop } def [/Times-Bold /Times-Italic /Times-BoldItalic /Helvetica /Helvetica-Oblique
 /Helvetica-Bold /Helvetica-BoldOblique /Courier /Courier-Oblique /Courier-Bold /Courier-BoldOblique /Times-Roman /AvantGarde-Book /AvantGarde-BookOblique /AvantGarde-Demi /AvantGarde-DemiOblique /Bookman-Demi /Bookman-DemiItalic /Bookman-Light
 /Bookman-LightItalic /Helvetica-Narrow /Helvetica-Narrow-Bold /Helvetica-Narrow-BoldOblique /Helvetica-Narrow-Oblique /NewCenturySchlbk-Roman /NewCenturySchlbk-Bold /NewCenturySchlbk-BoldItalic /NewCenturySchlbk-Italic /Palatino-Bold
 /Palatino-BoldItalic /Palatino-Italic /Palatino-Roman ] {ISOLatin1Encoding reEncode } forall/Zone {/iy exch def /ix exch def  ix 1 sub  3144 mul  1 iy sub  2224 mul t} def
%%EndProlog
%%BeginSetup
%%EndSetup
newpath  gsave  90 r 0 -594 t  28 20 t .25 .25 scale  gsave 
%%Page: 1 1
 gsave  gsave 
 1 1 Zone
 gsave  0 0 t black[  ] 0 sd 3 lw 1 1 1 c 1264 1088 1344 1157 bf black 1 1 1 c 974 838 1508 1298 bf black 974 838 1508 1298 bl 1 1 1 c 974 838 1508 1298 bf black 974 838 1508 1298 bl 0.52 0.76 0.64 c 6 lw 1508 1298 m 39 X 174 Y 39 X 173 Y 39 X 174 Y
 39 X -35 Y 39 X 104 Y 39 X -243 Y 39 X -104 Y 39 X 521 Y 38 X -35 Y 39 X 35 Y 39 X 34 Y 78 X -34 Y 78 X -139 Y 39 X -70 Y 39 X 174 Y 39 X -139 Y 39 X -208 Y 39 X -278 Y 78 X -35 Y 39 X -34 Y 39 X -35 Y 39 X s black 3 lw 1508 1298 m 974 X s
 gsave  1264 1088 1344 1157 C 1789.53 1191.06 t 0 r /Times-Bold findfont 49.8775 sf 0 0 m (Number of Towers) show NC gr  1508 1323 m -25 Y s 1547 1311 m -13 Y s 1586 1311 m -13 Y s 1625 1311 m -13 Y s 1664 1311 m -13 Y s 1703 1323 m -25 Y s 1742 1311
 m -13 Y s 1781 1311 m -13 Y s 1820 1311 m -13 Y s 1858 1311 m -13 Y s 1897 1323 m -25 Y s 1936 1311 m -13 Y s 1975 1311 m -13 Y s 2014 1311 m -13 Y s 2053 1311 m -13 Y s 2092 1323 m -25 Y s 2131 1311 m -13 Y s 2170 1311 m -13 Y s 2209 1311 m -13 Y s
 2248 1311 m -13 Y s 2287 1323 m -25 Y s 2326 1311 m -13 Y s 2365 1311 m -13 Y s 2404 1311 m -13 Y s 2443 1311 m -13 Y s 2482 1323 m -25 Y s
 gsave  1264 1088 1344 1157 C 1499.1 1267.34 t 0 r /Times-Bold findfont 29.3397 sf 0 0 m (0) show NC gr 
 gsave  1264 1088 1344 1157 C 1692.72 1267.34 t 0 r /Times-Bold findfont 29.3397 sf 0 0 m (5) show NC gr 
 gsave  1264 1088 1344 1157 C 1880.47 1267.34 t 0 r /Times-Bold findfont 29.3397 sf 0 0 m (10) show NC gr 
 gsave  1264 1088 1344 1157 C 2077.03 1267.34 t 0 r /Times-Bold findfont 29.3397 sf 0 0 m (15) show NC gr 
 gsave  1264 1088 1344 1157 C 2270.65 1267.34 t 0 r /Times-Bold findfont 29.3397 sf 0 0 m (20) show NC gr 
 gsave  1264 1088 1344 1157 C 2464.27 1267.34 t 0 r /Times-Bold findfont 29.3397 sf 0 0 m (25) show NC gr  1508 2136 m 974 X s 1508 2111 m 25 Y s 1547 2124 m 12 Y s 1586 2124 m 12 Y s 1625 2124 m 12 Y s 1664 2124 m 12 Y s 1703 2111 m 25 Y s 1742 2124
 m 12 Y s 1781 2124 m 12 Y s 1820 2124 m 12 Y s 1858 2124 m 12 Y s 1897 2111 m 25 Y s 1936 2124 m 12 Y s 1975 2124 m 12 Y s 2014 2124 m 12 Y s 2053 2124 m 12 Y s 2092 2111 m 25 Y s 2131 2124 m 12 Y s 2170 2124 m 12 Y s 2209 2124 m 12 Y s 2248 2124 m
 12 Y s 2287 2111 m 25 Y s 2326 2124 m 12 Y s 2365 2124 m 12 Y s 2404 2124 m 12 Y s 2443 2124 m 12 Y s 2482 2111 m 25 Y s 1508 1298 m 838 Y s
 gsave  1264 1088 1344 1157 C 1408.16 1546.04 t 90 r /Times-Bold findfont 41.0756 sf 0 0 m (Number of Clusters) show NC gr  1537 1298 m -29 X s 1523 1315 m -15 X s 1523 1333 m -15 X s 1523 1350 m -15 X s 1537 1367 m -29 X s 1523 1385 m -15 X s 1523
 1402 m -15 X s 1523 1420 m -15 X s 1537 1437 m -29 X s 1523 1454 m -15 X s 1523 1472 m -15 X s 1523 1489 m -15 X s 1537 1506 m -29 X s 1523 1524 m -15 X s 1523 1541 m -15 X s 1523 1558 m -15 X s 1537 1576 m -29 X s 1523 1593 m -15 X s 1523 1610 m
 -15 X s 1523 1628 m -15 X s 1537 1645 m -29 X s 1523 1662 m -15 X s 1523 1680 m -15 X s 1523 1697 m -15 X s 1537 1715 m -29 X s 1523 1732 m -15 X s 1523 1749 m -15 X s 1523 1767 m -15 X s 1537 1784 m -29 X s 1523 1801 m -15 X s 1523 1819 m -15 X s
 1523 1836 m -15 X s 1537 1853 m -29 X s 1523 1871 m -15 X s 1523 1888 m -15 X s 1523 1905 m -15 X s 1537 1923 m -29 X s 1523 1940 m -15 X s 1523 1957 m -15 X s 1523 1975 m -15 X s 1537 1992 m -29 X s 1523 2010 m -15 X s 1523 2027 m -15 X s 1523 2044
 m -15 X s 1537 2062 m -29 X s 1523 2079 m -15 X s 1523 2096 m -15 X s 1523 2114 m -15 X s 1537 2131 m -29 X s 1537 2131 m -29 X s
 gsave  1264 1088 1344 1157 C 1484.43 1287.88 t 0 r /Times-Bold findfont 29.3397 sf 0 0 m (0) show NC gr 
 gsave  1264 1088 1344 1157 C 1484.43 1355.35 t 0 r /Times-Bold findfont 29.3397 sf 0 0 m (2) show NC gr 
 gsave  1264 1088 1344 1157 C 1484.43 1422.82 t 0 r /Times-Bold findfont 29.3397 sf 0 0 m (4) show NC gr 
 gsave  1264 1088 1344 1157 C 1484.43 1496.16 t 0 r /Times-Bold findfont 29.3397 sf 0 0 m (6) show NC gr 
 gsave  1264 1088 1344 1157 C 1484.43 1566.57 t 0 r /Times-Bold findfont 29.3397 sf 0 0 m (8) show NC gr 
 gsave  1264 1088 1344 1157 C 1469.76 1634.05 t 0 r /Times-Bold findfont 29.3397 sf 0 0 m (10) show NC gr 
 gsave  1264 1088 1344 1157 C 1469.76 1701.52 t 0 r /Times-Bold findfont 29.3397 sf 0 0 m (12) show NC gr 
 gsave  1264 1088 1344 1157 C 1469.76 1771.93 t 0 r /Times-Bold findfont 29.3397 sf 0 0 m (14) show NC gr 
 gsave  1264 1088 1344 1157 C 1469.76 1842.34 t 0 r /Times-Bold findfont 29.3397 sf 0 0 m (16) show NC gr 
 gsave  1264 1088 1344 1157 C 1469.76 1912.74 t 0 r /Times-Bold findfont 29.3397 sf 0 0 m (18) show NC gr 
 gsave  1264 1088 1344 1157 C 1469.76 1983.15 t 0 r /Times-Bold findfont 29.3397 sf 0 0 m (20) show NC gr 
 gsave  1264 1088 1344 1157 C 1469.76 2047.69 t 0 r /Times-Bold findfont 29.3397 sf 0 0 m (22) show NC gr 
 gsave  1264 1088 1344 1157 C 1469.76 2118.1 t 0 r /Times-Bold findfont 29.3397 sf 0 0 m (24) show NC gr  2482 1298 m 838 Y s 2452 1298 m 30 X s 2467 1315 m 15 X s 2467 1333 m 15 X s 2467 1350 m 15 X s 2452 1367 m 30 X s 2467 1385 m 15 X s 2467 1402
 m 15 X s 2467 1420 m 15 X s 2452 1437 m 30 X s 2467 1454 m 15 X s 2467 1472 m 15 X s 2467 1489 m 15 X s 2452 1506 m 30 X s 2467 1524 m 15 X s 2467 1541 m 15 X s 2467 1558 m 15 X s 2452 1576 m 30 X s 2467 1593 m 15 X s 2467 1610 m 15 X s 2467 1628 m
 15 X s 2452 1645 m 30 X s 2467 1662 m 15 X s 2467 1680 m 15 X s 2467 1697 m 15 X s 2452 1715 m 30 X s 2467 1732 m 15 X s 2467 1749 m 15 X s 2467 1767 m 15 X s 2452 1784 m 30 X s 2467 1801 m 15 X s 2467 1819 m 15 X s 2467 1836 m 15 X s 2452 1853 m 30
 X s 2467 1871 m 15 X s 2467 1888 m 15 X s 2467 1905 m 15 X s 2452 1923 m 30 X s 2467 1940 m 15 X s 2467 1957 m 15 X s 2467 1975 m 15 X s 2452 1992 m 30 X s 2467 2010 m 15 X s 2467 2027 m 15 X s 2467 2044 m 15 X s 2452 2062 m 30 X s 2467 2079 m 15 X
 s 2467 2096 m 15 X s 2467 2114 m 15 X s 2452 2131 m 30 X s 2452 2131 m 30 X s gr showpage
 gr 
%%Trailer
%%Pages:  1
 gr  gr  gr 
%%EOF
