%!PS-Adobe-2.0
%%Title: padsCanvas.ps ( A 4)
%%Pages: (atend)
%%Creator: ROOT Version 6.06/02
%%CreationDate: Thu Aug 11 20:02:03 2016
%%Orientation: Landscape
%%DocumentNeededResources: ProcSet (FontSetInit)
%%EndComments
%%BeginProlog
/s {stroke} def /l {lineto} def /m {moveto} def /t {translate} def
/r {rotate} def /rl {roll}  def /R {repeat} def
/d {rlineto} def /rm {rmoveto} def /gr {grestore} def /f {eofill} def
/c {setrgbcolor} def /black {0 setgray} def /sd {setdash} def
/cl {closepath} def /sf {scalefont setfont} def /lw {setlinewidth} def
/box {m dup 0 exch d exch 0 d 0 exch neg d cl} def
/NC{systemdict begin initclip end}def/C{NC box clip newpath}def
/bl {box s} def /bf {gsave box gsave f grestore 1 lw [] 0 sd s grestore} def /Y { 0 exch d} def /X { 0 d} def 
/K {{pop pop 0 moveto} exch kshow} bind def
/ita {/ang 15 def gsave [1 0 ang dup sin exch cos div 1 0 0] concat} def 
/mp {newpath /y exch def /x exch def} def
/side {[w .77 mul w .23 mul] .385 w mul sd w 0 l currentpoint t -144 r} def
/mr {mp x y w2 0 360 arc} def /m24 {mr s} def /m20 {mr f} def
/mb {mp x y w2 add m w2 neg 0 d 0 w neg d w 0 d 0 w d cl} def
/mt {mp x y w2 add m w2 neg w neg d w 0 d cl} def
/m21 {mb f} def /m25 {mb s} def /m22 {mt f} def /m26{mt s} def
/m23 {mp x y w2 sub m w2 w d w neg 0 d cl f} def
/m27 {mp x y w2 add m w3 neg w2 neg d w3 w2 neg d w3 w2 d cl s} def
/m28 {mp x w2 sub y w2 sub w3 add m w3 0 d  0 w3 neg d w3 0 d 0 w3 d w3 0 d  0 w3 d w3 neg 0 d 0 w3 d w3 neg 0 d 0 w3 neg d w3 neg 0 d cl s } def
/m29 {mp gsave x w2 sub y w2 add w3 sub m currentpoint t 4 {side} repeat cl fill gr} def
/m30 {mp gsave x w2 sub y w2 add w3 sub m currentpoint t 4 {side} repeat cl s gr} def
/m31 {mp x y w2 sub m 0 w d x w2 sub y m w 0 d x w2 sub y w2 add m w w neg d x w2 sub y w2 sub m w w d s} def
/m32 {mp x y w2 sub m w2 w d w neg 0 d cl s} def
/m33 {mp x y w2 add m w3 neg w2 neg d w3 w2 neg d w3 w2 d cl f} def
/m34 {mp x w2 sub y w2 sub w3 add m w3 0 d  0 w3 neg d w3 0 d 0 w3 d w3 0 d  0 w3 d w3 neg 0 d 0 w3 d w3 neg 0 d 0 w3 neg d w3 neg 0 d cl f } def
/m2 {mp x y w2 sub m 0 w d x w2 sub y m w 0 d s} def
/m5 {mp x w2 sub y w2 sub m w w d x w2 sub y w2 add m w w neg d s} def
%%IncludeResource: ProcSet (FontSetInit)
%%IncludeResource: font Times-Roman
%%IncludeResource: font Times-Italic
%%IncludeResource: font Times-Bold
%%IncludeResource: font Times-BoldItalic
%%IncludeResource: font Helvetica
%%IncludeResource: font Helvetica-Oblique
%%IncludeResource: font Helvetica-Bold
%%IncludeResource: font Helvetica-BoldOblique
%%IncludeResource: font Courier
%%IncludeResource: font Courier-Oblique
%%IncludeResource: font Courier-Bold
%%IncludeResource: font Courier-BoldOblique
%%IncludeResource: font Symbol
%%IncludeResource: font ZapfDingbats
/reEncode {exch findfont dup length dict begin {1 index /FID eq  {pop pop} {def} ifelse } forall /Encoding exch def currentdict end dup /FontName get exch definefont pop } def [/Times-Bold /Times-Italic /Times-BoldItalic /Helvetica /Helvetica-Oblique
 /Helvetica-Bold /Helvetica-BoldOblique /Courier /Courier-Oblique /Courier-Bold /Courier-BoldOblique /Times-Roman /AvantGarde-Book /AvantGarde-BookOblique /AvantGarde-Demi /AvantGarde-DemiOblique /Bookman-Demi /Bookman-DemiItalic /Bookman-Light
 /Bookman-LightItalic /Helvetica-Narrow /Helvetica-Narrow-Bold /Helvetica-Narrow-BoldOblique /Helvetica-Narrow-Oblique /NewCenturySchlbk-Roman /NewCenturySchlbk-Bold /NewCenturySchlbk-BoldItalic /NewCenturySchlbk-Italic /Palatino-Bold
 /Palatino-BoldItalic /Palatino-Italic /Palatino-Roman ] {ISOLatin1Encoding reEncode } forall/Zone {/iy exch def /ix exch def  ix 1 sub  3144 mul  1 iy sub  2224 mul t} def
%%EndProlog
%%BeginSetup
%%EndSetup
newpath  gsave  90 r 0 -594 t  28 20 t .25 .25 scale  gsave 
%%Page: 1 1
 gsave  gsave 
 1 1 Zone
 gsave  0 0 t black[  ] 0 sd 3 lw 1 1 1 c 2634 2268 0 0 bf black 1 1 1 c 1265 1088 26 1157 bf black 1 1 1 c 1264 1088 1344 1157 bf black 1 1 1 c 1265 1088 26 23 bf black 1 1 1 c 1264 1088 1344 23 bf black 1 1 1 c 1265 1088 26 1157 bf black 1 1 1 c
 973 838 191 1298 bf black 973 838 191 1298 bl 0.41 0.51 0.59 c 6 lw 191 1298 m 33 X 798 Y 34 X -236 Y 33 X -473 Y 34 X 29 Y 34 X 59 Y 33 X 30 Y 67 X 59 Y 34 X 178 Y 33 X -148 Y 34 X 207 Y 34 X 207 Y 33 X -237 Y 34 X 266 Y 67 X -266 Y 34 X 237 Y 33 X
 -89 Y 34 X -207 Y 33 X 89 Y 34 X -296 Y 33 X -59 Y 34 X -118 Y 34 X 29 Y 33 X 59 Y 34 X -118 Y 33 X 30 Y 34 X -30 Y 33 X s black 3 lw 191 1298 m 973 X s
 gsave  1265 1088 26 1157 C 472.319 1191.06 t 0 r /Times-Bold findfont 49.8775 sf 0 0 m (Number of Towers) show NC gr  191 1323 m -25 Y s 224 1311 m -13 Y s 258 1311 m -13 Y s 291 1311 m -13 Y s 325 1311 m -13 Y s 359 1323 m -25 Y s 392 1311 m -13 Y
 s 426 1311 m -13 Y s 459 1311 m -13 Y s 493 1311 m -13 Y s 526 1323 m -25 Y s 560 1311 m -13 Y s 594 1311 m -13 Y s 627 1311 m -13 Y s 661 1311 m -13 Y s 694 1323 m -25 Y s 728 1311 m -13 Y s 762 1311 m -13 Y s 795 1311 m -13 Y s 829 1311 m -13 Y s
 862 1323 m -25 Y s 896 1311 m -13 Y s 929 1311 m -13 Y s 963 1311 m -13 Y s 997 1311 m -13 Y s 1030 1323 m -25 Y s 1030 1323 m -25 Y s 1064 1311 m -13 Y s 1097 1311 m -13 Y s 1131 1311 m -13 Y s 1164 1311 m -13 Y s
 gsave  1265 1088 26 1157 C 181.887 1267.34 t 0 r /Times-Bold findfont 29.3397 sf 0 0 m (0) show NC gr 
 gsave  1265 1088 26 1157 C 349.105 1267.34 t 0 r /Times-Bold findfont 29.3397 sf 0 0 m (5) show NC gr 
 gsave  1265 1088 26 1157 C 510.456 1267.34 t 0 r /Times-Bold findfont 29.3397 sf 0 0 m (10) show NC gr 
 gsave  1265 1088 26 1157 C 677.675 1267.34 t 0 r /Times-Bold findfont 29.3397 sf 0 0 m (15) show NC gr 
 gsave  1265 1088 26 1157 C 844.893 1267.34 t 0 r /Times-Bold findfont 29.3397 sf 0 0 m (20) show NC gr 
 gsave  1265 1088 26 1157 C 1015.05 1267.34 t 0 r /Times-Bold findfont 29.3397 sf 0 0 m (25) show NC gr  191 2136 m 973 X s 191 2111 m 25 Y s 224 2124 m 12 Y s 258 2124 m 12 Y s 291 2124 m 12 Y s 325 2124 m 12 Y s 359 2111 m 25 Y s 392 2124 m 12 Y s
 426 2124 m 12 Y s 459 2124 m 12 Y s 493 2124 m 12 Y s 526 2111 m 25 Y s 560 2124 m 12 Y s 594 2124 m 12 Y s 627 2124 m 12 Y s 661 2124 m 12 Y s 694 2111 m 25 Y s 728 2124 m 12 Y s 762 2124 m 12 Y s 795 2124 m 12 Y s 829 2124 m 12 Y s 862 2111 m 25 Y
 s 896 2124 m 12 Y s 929 2124 m 12 Y s 963 2124 m 12 Y s 997 2124 m 12 Y s 1030 2111 m 25 Y s 1030 2111 m 25 Y s 1064 2124 m 12 Y s 1097 2124 m 12 Y s 1131 2124 m 12 Y s 1164 2124 m 12 Y s 191 1298 m 838 Y s
 gsave  1265 1088 26 1157 C 90.9434 1546.04 t 90 r /Times-Bold findfont 41.0756 sf 0 0 m (Number of Clusters) show NC gr  220 1298 m -29 X s 205 1328 m -14 X s 205 1357 m -14 X s 205 1387 m -14 X s 205 1416 m -14 X s 220 1446 m -29 X s 205 1475 m -14
 X s 205 1505 m -14 X s 205 1535 m -14 X s 205 1564 m -14 X s 220 1594 m -29 X s 205 1623 m -14 X s 205 1653 m -14 X s 205 1682 m -14 X s 205 1712 m -14 X s 220 1742 m -29 X s 205 1771 m -14 X s 205 1801 m -14 X s 205 1830 m -14 X s 205 1860 m -14 X
 s 220 1889 m -29 X s 205 1919 m -14 X s 205 1948 m -14 X s 205 1978 m -14 X s 205 2008 m -14 X s 220 2037 m -29 X s 220 2037 m -29 X s 205 2067 m -14 X s 205 2096 m -14 X s 205 2126 m -14 X s
 gsave  1265 1088 26 1157 C 167.218 1287.88 t 0 r /Times-Bold findfont 29.3397 sf 0 0 m (0) show NC gr 
 gsave  1265 1088 26 1157 C 167.218 1434.56 t 0 r /Times-Bold findfont 29.3397 sf 0 0 m (5) show NC gr 
 gsave  1265 1088 26 1157 C 152.55 1584.17 t 0 r /Times-Bold findfont 29.3397 sf 0 0 m (10) show NC gr 
 gsave  1265 1088 26 1157 C 152.55 1730.86 t 0 r /Times-Bold findfont 29.3397 sf 0 0 m (15) show NC gr 
 gsave  1265 1088 26 1157 C 152.55 1880.47 t 0 r /Times-Bold findfont 29.3397 sf 0 0 m (20) show NC gr 
 gsave  1265 1088 26 1157 C 152.55 2027.16 t 0 r /Times-Bold findfont 29.3397 sf 0 0 m (25) show NC gr  1164 1298 m 838 Y s 1135 1298 m 29 X s 1150 1328 m 14 X s 1150 1357 m 14 X s 1150 1387 m 14 X s 1150 1416 m 14 X s 1135 1446 m 29 X s 1150 1475 m
 14 X s 1150 1505 m 14 X s 1150 1535 m 14 X s 1150 1564 m 14 X s 1135 1594 m 29 X s 1150 1623 m 14 X s 1150 1653 m 14 X s 1150 1682 m 14 X s 1150 1712 m 14 X s 1135 1742 m 29 X s 1150 1771 m 14 X s 1150 1801 m 14 X s 1150 1830 m 14 X s 1150 1860 m 14
 X s 1135 1889 m 29 X s 1150 1919 m 14 X s 1150 1948 m 14 X s 1150 1978 m 14 X s 1150 2008 m 14 X s 1135 2037 m 29 X s 1135 2037 m 29 X s 1150 2067 m 14 X s 1150 2096 m 14 X s 1150 2126 m 14 X s 1 1 1 c 1264 1088 1344 1157 bf black 1 1 1 c 974 838
 1508 1298 bf black 974 838 1508 1298 bl 0.52 0.76 0.64 c 6 lw 1508 1298 m 37 X 86 Y 38 X 28 Y 37 X -28 Y 38 X 28 Y 37 X 57 Y 113 X 171 Y 74 X 29 Y 38 X 228 Y 37 X -228 Y 38 X 57 Y 37 X 142 Y 38 X 228 Y 37 X -171 Y 38 X -57 Y 37 X 86 Y 37 X -114 Y 38
 X 57 Y 37 X -314 Y 38 X -199 Y 37 X 28 Y 38 X -28 Y 37 X -86 Y 38 X s black 3 lw 1508 1298 m 974 X s
 gsave  1264 1088 1344 1157 C 1789.53 1191.06 t 0 r /Times-Bold findfont 49.8775 sf 0 0 m (Number of Towers) show NC gr  1508 1323 m -25 Y s 1545 1311 m -13 Y s 1583 1311 m -13 Y s 1620 1311 m -13 Y s 1658 1311 m -13 Y s 1695 1323 m -25 Y s 1733 1311
 m -13 Y s 1770 1311 m -13 Y s 1808 1311 m -13 Y s 1845 1311 m -13 Y s 1882 1323 m -25 Y s 1920 1311 m -13 Y s 1957 1311 m -13 Y s 1995 1311 m -13 Y s 2032 1311 m -13 Y s 2070 1323 m -25 Y s 2107 1311 m -13 Y s 2145 1311 m -13 Y s 2182 1311 m -13 Y s
 2219 1311 m -13 Y s 2257 1323 m -25 Y s 2294 1311 m -13 Y s 2332 1311 m -13 Y s 2369 1311 m -13 Y s 2407 1311 m -13 Y s 2444 1323 m -25 Y s 2444 1323 m -25 Y s
 gsave  1264 1088 1344 1157 C 1499.1 1267.34 t 0 r /Times-Bold findfont 29.3397 sf 0 0 m (0) show NC gr 
 gsave  1264 1088 1344 1157 C 1683.92 1267.34 t 0 r /Times-Bold findfont 29.3397 sf 0 0 m (5) show NC gr 
 gsave  1264 1088 1344 1157 C 1865.81 1267.34 t 0 r /Times-Bold findfont 29.3397 sf 0 0 m (10) show NC gr 
 gsave  1264 1088 1344 1157 C 2053.56 1267.34 t 0 r /Times-Bold findfont 29.3397 sf 0 0 m (15) show NC gr 
 gsave  1264 1088 1344 1157 C 2241.31 1267.34 t 0 r /Times-Bold findfont 29.3397 sf 0 0 m (20) show NC gr 
 gsave  1264 1088 1344 1157 C 2429.07 1267.34 t 0 r /Times-Bold findfont 29.3397 sf 0 0 m (25) show NC gr  1508 2136 m 974 X s 1508 2111 m 25 Y s 1545 2124 m 12 Y s 1583 2124 m 12 Y s 1620 2124 m 12 Y s 1658 2124 m 12 Y s 1695 2111 m 25 Y s 1733 2124
 m 12 Y s 1770 2124 m 12 Y s 1808 2124 m 12 Y s 1845 2124 m 12 Y s 1882 2111 m 25 Y s 1920 2124 m 12 Y s 1957 2124 m 12 Y s 1995 2124 m 12 Y s 2032 2124 m 12 Y s 2070 2111 m 25 Y s 2107 2124 m 12 Y s 2145 2124 m 12 Y s 2182 2124 m 12 Y s 2219 2124 m
 12 Y s 2257 2111 m 25 Y s 2294 2124 m 12 Y s 2332 2124 m 12 Y s 2369 2124 m 12 Y s 2407 2124 m 12 Y s 2444 2111 m 25 Y s 2444 2111 m 25 Y s 1508 1298 m 838 Y s
 gsave  1264 1088 1344 1157 C 1408.16 1546.04 t 90 r /Times-Bold findfont 41.0756 sf 0 0 m (Number of Clusters) show NC gr  1537 1298 m -29 X s 1523 1327 m -15 X s 1523 1355 m -15 X s 1523 1384 m -15 X s 1523 1412 m -15 X s 1537 1441 m -29 X s 1523
 1469 m -15 X s 1523 1498 m -15 X s 1523 1526 m -15 X s 1523 1555 m -15 X s 1537 1583 m -29 X s 1523 1612 m -15 X s 1523 1640 m -15 X s 1523 1669 m -15 X s 1523 1697 m -15 X s 1537 1726 m -29 X s 1523 1754 m -15 X s 1523 1783 m -15 X s 1523 1811 m
 -15 X s 1523 1840 m -15 X s 1537 1868 m -29 X s 1523 1897 m -15 X s 1523 1925 m -15 X s 1523 1954 m -15 X s 1523 1982 m -15 X s 1537 2011 m -29 X s 1537 2011 m -29 X s 1523 2039 m -15 X s 1523 2068 m -15 X s 1523 2096 m -15 X s 1523 2125 m -15 X s
 gsave  1264 1088 1344 1157 C 1484.43 1287.88 t 0 r /Times-Bold findfont 29.3397 sf 0 0 m (0) show NC gr 
 gsave  1264 1088 1344 1157 C 1484.43 1431.62 t 0 r /Times-Bold findfont 29.3397 sf 0 0 m (5) show NC gr 
 gsave  1264 1088 1344 1157 C 1469.76 1572.44 t 0 r /Times-Bold findfont 29.3397 sf 0 0 m (10) show NC gr 
 gsave  1264 1088 1344 1157 C 1469.76 1716.19 t 0 r /Times-Bold findfont 29.3397 sf 0 0 m (15) show NC gr 
 gsave  1264 1088 1344 1157 C 1469.76 1857 t 0 r /Times-Bold findfont 29.3397 sf 0 0 m (20) show NC gr 
 gsave  1264 1088 1344 1157 C 1469.76 2000.75 t 0 r /Times-Bold findfont 29.3397 sf 0 0 m (25) show NC gr  2482 1298 m 838 Y s 2452 1298 m 30 X s 2467 1327 m 15 X s 2467 1355 m 15 X s 2467 1384 m 15 X s 2467 1412 m 15 X s 2452 1441 m 30 X s 2467 1469
 m 15 X s 2467 1498 m 15 X s 2467 1526 m 15 X s 2467 1555 m 15 X s 2452 1583 m 30 X s 2467 1612 m 15 X s 2467 1640 m 15 X s 2467 1669 m 15 X s 2467 1697 m 15 X s 2452 1726 m 30 X s 2467 1754 m 15 X s 2467 1783 m 15 X s 2467 1811 m 15 X s 2467 1840 m
 15 X s 2452 1868 m 30 X s 2467 1897 m 15 X s 2467 1925 m 15 X s 2467 1954 m 15 X s 2467 1982 m 15 X s 2452 2011 m 30 X s 2452 2011 m 30 X s 2467 2039 m 15 X s 2467 2068 m 15 X s 2467 2096 m 15 X s 2467 2125 m 15 X s 1 1 1 c 1265 1088 26 23 bf black
 1 1 1 c 973 838 191 164 bf black 973 838 191 164 bl 0.54 0.06 0.54 c 6 lw 191 164 m 36 X 31 Y 36 X 31 Y 36 X 30 Y 36 X 31 Y 36 X -31 Y 36 X 62 Y 36 X 122 Y 36 X 93 Y 36 X 61 Y 36 X -92 Y 36 X 123 Y 36 X 61 Y 37 X 154 Y 72 X 92 Y 36 X -430 Y 36 X 460
 Y 36 X -92 Y 36 X -184 Y 36 X 62 Y 36 X -461 Y 36 X 153 Y 36 X -92 Y 36 X -122 Y 36 X 30 Y 36 X -92 Y 36 X s black 3 lw 191 164 m 973 X s
 gsave  1265 1088 26 23 C 472.319 58.6731 t 0 r /Times-Bold findfont 49.8775 sf 0 0 m (Number of Towers) show NC gr  191 189 m -25 Y s 227 177 m -13 Y s 263 177 m -13 Y s 299 177 m -13 Y s 335 177 m -13 Y s 371 189 m -25 Y s 407 177 m -13 Y s 443 177
 m -13 Y s 479 177 m -13 Y s 515 177 m -13 Y s 551 189 m -25 Y s 587 177 m -13 Y s 623 177 m -13 Y s 660 177 m -13 Y s 696 177 m -13 Y s 732 189 m -25 Y s 768 177 m -13 Y s 804 177 m -13 Y s 840 177 m -13 Y s 876 177 m -13 Y s 912 189 m -25 Y s 948
 177 m -13 Y s 984 177 m -13 Y s 1020 177 m -13 Y s 1056 177 m -13 Y s 1092 189 m -25 Y s 1092 189 m -25 Y s 1128 177 m -13 Y s
 gsave  1265 1088 26 23 C 181.887 134.948 t 0 r /Times-Bold findfont 29.3397 sf 0 0 m (0) show NC gr 
 gsave  1265 1088 26 23 C 360.84 134.948 t 0 r /Times-Bold findfont 29.3397 sf 0 0 m (5) show NC gr 
 gsave  1265 1088 26 23 C 533.925 134.948 t 0 r /Times-Bold findfont 29.3397 sf 0 0 m (10) show NC gr 
 gsave  1265 1088 26 23 C 715.812 134.948 t 0 r /Times-Bold findfont 29.3397 sf 0 0 m (15) show NC gr 
 gsave  1265 1088 26 23 C 894.765 134.948 t 0 r /Times-Bold findfont 29.3397 sf 0 0 m (20) show NC gr 
 gsave  1265 1088 26 23 C 1076.65 134.948 t 0 r /Times-Bold findfont 29.3397 sf 0 0 m (25) show NC gr  191 1002 m 973 X s 191 977 m 25 Y s 227 990 m 12 Y s 263 990 m 12 Y s 299 990 m 12 Y s 335 990 m 12 Y s 371 977 m 25 Y s 407 990 m 12 Y s 443 990 m
 12 Y s 479 990 m 12 Y s 515 990 m 12 Y s 551 977 m 25 Y s 587 990 m 12 Y s 623 990 m 12 Y s 660 990 m 12 Y s 696 990 m 12 Y s 732 977 m 25 Y s 768 990 m 12 Y s 804 990 m 12 Y s 840 990 m 12 Y s 876 990 m 12 Y s 912 977 m 25 Y s 948 990 m 12 Y s 984
 990 m 12 Y s 1020 990 m 12 Y s 1056 990 m 12 Y s 1092 977 m 25 Y s 1092 977 m 25 Y s 1128 990 m 12 Y s 191 164 m 838 Y s
 gsave  1265 1088 26 23 C 90.9434 410.712 t 90 r /Times-Bold findfont 41.0756 sf 0 0 m (Number of Clusters) show NC gr  220 164 m -29 X s 205 195 m -14 X s 205 226 m -14 X s 205 256 m -14 X s 205 287 m -14 X s 220 318 m -29 X s 205 348 m -14 X s 205
 379 m -14 X s 205 410 m -14 X s 205 440 m -14 X s 220 471 m -29 X s 205 502 m -14 X s 205 533 m -14 X s 205 563 m -14 X s 205 594 m -14 X s 220 625 m -29 X s 205 655 m -14 X s 205 686 m -14 X s 205 717 m -14 X s 205 748 m -14 X s 220 778 m -29 X s
 205 809 m -14 X s 205 840 m -14 X s 205 870 m -14 X s 205 901 m -14 X s 220 932 m -29 X s 220 932 m -29 X s 205 962 m -14 X s 205 993 m -14 X s
 gsave  1265 1088 26 23 C 167.218 152.55 t 0 r /Times-Bold findfont 29.3397 sf 0 0 m (0) show NC gr 
 gsave  1265 1088 26 23 C 167.218 308.034 t 0 r /Times-Bold findfont 29.3397 sf 0 0 m (5) show NC gr 
 gsave  1265 1088 26 23 C 152.55 460.584 t 0 r /Times-Bold findfont 29.3397 sf 0 0 m (10) show NC gr 
 gsave  1265 1088 26 23 C 152.55 613.134 t 0 r /Times-Bold findfont 29.3397 sf 0 0 m (15) show NC gr 
 gsave  1265 1088 26 23 C 152.55 768.618 t 0 r /Times-Bold findfont 29.3397 sf 0 0 m (20) show NC gr 
 gsave  1265 1088 26 23 C 152.55 921.168 t 0 r /Times-Bold findfont 29.3397 sf 0 0 m (25) show NC gr  1164 164 m 838 Y s 1135 164 m 29 X s 1150 195 m 14 X s 1150 226 m 14 X s 1150 256 m 14 X s 1150 287 m 14 X s 1135 318 m 29 X s 1150 348 m 14 X s
 1150 379 m 14 X s 1150 410 m 14 X s 1150 440 m 14 X s 1135 471 m 29 X s 1150 502 m 14 X s 1150 533 m 14 X s 1150 563 m 14 X s 1150 594 m 14 X s 1135 625 m 29 X s 1150 655 m 14 X s 1150 686 m 14 X s 1150 717 m 14 X s 1150 748 m 14 X s 1135 778 m 29 X
 s 1150 809 m 14 X s 1150 840 m 14 X s 1150 870 m 14 X s 1150 901 m 14 X s 1135 932 m 29 X s 1135 932 m 29 X s 1150 962 m 14 X s 1150 993 m 14 X s 1 1 1 c 1264 1088 1344 23 bf black 1 1 1 c 974 838 1508 164 bf black 974 838 1508 164 bl 0.58 0.41 0.44
 c 6 lw 1508 164 m 67 X 59 Y 34 X 30 Y 33 X -30 Y 34 X -59 Y 33 X 266 Y 34 X -59 Y 34 X 178 Y 33 X 59 Y 67 X 88 Y 67 X -147 Y 34 X 118 Y 34 X 295 Y 33 X -266 Y 34 X 89 Y 33 X -118 Y 34 X 148 Y 33 X -237 Y 34 X -148 Y 34 X 30 Y 33 X -118 Y 34 X -119 Y
 33 X -59 Y 67 X 30 Y 34 X -30 Y 34 X s black 3 lw 1508 164 m 974 X s
 gsave  1264 1088 1344 23 C 1789.53 58.6731 t 0 r /Times-Bold findfont 49.8775 sf 0 0 m (Number of Towers) show NC gr  1508 189 m -25 Y s 1542 177 m -13 Y s 1575 177 m -13 Y s 1609 177 m -13 Y s 1642 177 m -13 Y s 1676 189 m -25 Y s 1709 177 m -13 Y
 s 1743 177 m -13 Y s 1777 177 m -13 Y s 1810 177 m -13 Y s 1844 189 m -25 Y s 1877 177 m -13 Y s 1911 177 m -13 Y s 1944 177 m -13 Y s 1978 177 m -13 Y s 2012 189 m -25 Y s 2045 177 m -13 Y s 2079 177 m -13 Y s 2112 177 m -13 Y s 2146 177 m -13 Y s
 2179 189 m -25 Y s 2213 177 m -13 Y s 2247 177 m -13 Y s 2280 177 m -13 Y s 2314 177 m -13 Y s 2347 189 m -25 Y s 2347 189 m -25 Y s 2381 177 m -13 Y s 2414 177 m -13 Y s 2448 177 m -13 Y s 2482 177 m -13 Y s
 gsave  1264 1088 1344 23 C 1499.1 134.948 t 0 r /Times-Bold findfont 29.3397 sf 0 0 m (0) show NC gr 
 gsave  1264 1088 1344 23 C 1666.32 134.948 t 0 r /Times-Bold findfont 29.3397 sf 0 0 m (5) show NC gr 
 gsave  1264 1088 1344 23 C 1827.67 134.948 t 0 r /Times-Bold findfont 29.3397 sf 0 0 m (10) show NC gr 
 gsave  1264 1088 1344 23 C 1994.89 134.948 t 0 r /Times-Bold findfont 29.3397 sf 0 0 m (15) show NC gr 
 gsave  1264 1088 1344 23 C 2162.1 134.948 t 0 r /Times-Bold findfont 29.3397 sf 0 0 m (20) show NC gr 
 gsave  1264 1088 1344 23 C 2332.26 134.948 t 0 r /Times-Bold findfont 29.3397 sf 0 0 m (25) show NC gr  1508 1002 m 974 X s 1508 977 m 25 Y s 1542 990 m 12 Y s 1575 990 m 12 Y s 1609 990 m 12 Y s 1642 990 m 12 Y s 1676 977 m 25 Y s 1709 990 m 12 Y s
 1743 990 m 12 Y s 1777 990 m 12 Y s 1810 990 m 12 Y s 1844 977 m 25 Y s 1877 990 m 12 Y s 1911 990 m 12 Y s 1944 990 m 12 Y s 1978 990 m 12 Y s 2012 977 m 25 Y s 2045 990 m 12 Y s 2079 990 m 12 Y s 2112 990 m 12 Y s 2146 990 m 12 Y s 2179 977 m 25 Y
 s 2213 990 m 12 Y s 2247 990 m 12 Y s 2280 990 m 12 Y s 2314 990 m 12 Y s 2347 977 m 25 Y s 2347 977 m 25 Y s 2381 990 m 12 Y s 2414 990 m 12 Y s 2448 990 m 12 Y s 2482 990 m 12 Y s 1508 164 m 838 Y s
 gsave  1264 1088 1344 23 C 1408.16 410.712 t 90 r /Times-Bold findfont 41.0756 sf 0 0 m (Number of Clusters) show NC gr  1537 164 m -29 X s 1523 194 m -15 X s 1523 223 m -15 X s 1523 253 m -15 X s 1523 282 m -15 X s 1537 312 m -29 X s 1523 342 m -15
 X s 1523 371 m -15 X s 1523 401 m -15 X s 1523 430 m -15 X s 1537 460 m -29 X s 1523 489 m -15 X s 1523 519 m -15 X s 1523 549 m -15 X s 1523 578 m -15 X s 1537 608 m -29 X s 1523 637 m -15 X s 1523 667 m -15 X s 1523 696 m -15 X s 1523 726 m -15 X
 s 1537 755 m -29 X s 1523 785 m -15 X s 1523 815 m -15 X s 1523 844 m -15 X s 1523 874 m -15 X s 1537 903 m -29 X s 1537 903 m -29 X s 1523 933 m -15 X s 1523 962 m -15 X s 1523 992 m -15 X s
 gsave  1264 1088 1344 23 C 1484.43 152.55 t 0 r /Times-Bold findfont 29.3397 sf 0 0 m (0) show NC gr 
 gsave  1264 1088 1344 23 C 1484.43 302.167 t 0 r /Times-Bold findfont 29.3397 sf 0 0 m (5) show NC gr 
 gsave  1264 1088 1344 23 C 1469.76 448.849 t 0 r /Times-Bold findfont 29.3397 sf 0 0 m (10) show NC gr 
 gsave  1264 1088 1344 23 C 1469.76 598.466 t 0 r /Times-Bold findfont 29.3397 sf 0 0 m (15) show NC gr 
 gsave  1264 1088 1344 23 C 1469.76 745.149 t 0 r /Times-Bold findfont 29.3397 sf 0 0 m (20) show NC gr 
 gsave  1264 1088 1344 23 C 1469.76 891.832 t 0 r /Times-Bold findfont 29.3397 sf 0 0 m (25) show NC gr  2482 164 m 838 Y s 2452 164 m 30 X s 2467 194 m 15 X s 2467 223 m 15 X s 2467 253 m 15 X s 2467 282 m 15 X s 2452 312 m 30 X s 2467 342 m 15 X s
 2467 371 m 15 X s 2467 401 m 15 X s 2467 430 m 15 X s 2452 460 m 30 X s 2467 489 m 15 X s 2467 519 m 15 X s 2467 549 m 15 X s 2467 578 m 15 X s 2452 608 m 30 X s 2467 637 m 15 X s 2467 667 m 15 X s 2467 696 m 15 X s 2467 726 m 15 X s 2452 755 m 30 X
 s 2467 785 m 15 X s 2467 815 m 15 X s 2467 844 m 15 X s 2467 874 m 15 X s 2452 903 m 30 X s 2452 903 m 30 X s 2467 933 m 15 X s 2467 962 m 15 X s 2467 992 m 15 X s gr showpage
 gr 
%%Trailer
%%Pages:  1
 gr  gr  gr 
%%EOF
